Data Wrangling
…
            na.rm=TRUE),
        lin_meth = max(
            c_across(contains("lin")),
            na.rm=TRUE),
        math_stat = max(
            c_across(contains("stat")), 
            na.rm=TRUE)
    ) %>%
    pivot_longer(
        -student,
        names_to="course",
        values_to="grade"
    )

# A tibble: 30 x 3
   student  course    grade
   <glue>   <chr>     <dbl>
 1 s1597662 res_meth    7.3
 2 s1597662 lin_meth    6.5
 3 s1597662 math_stat   8.3
 4 s2055581 res_meth    8.5
 5 s2055581 lin_meth    7.8
 6 s2055581 math_stat   6.6
 7 s1793478 res_meth    7.8
 8 s1793478 lin_meth    7.4
 9 s1793478 math_stat   6.7
10 s2286296 res_meth    7.4
# ... with 20 more rows

Tidy data?

test_results %>%
    pivot_longer(
        -student,
        names_to=c("course", "attempt"),
        names_pattern="(.*)_(\\d+)",
        values_to="result",
        values_drop_na=TRUE
    )

# A tibble: 38 x 4
   student  course    attempt result
   <glue>   <chr>     <chr>    <dbl>
 1 s1597662 res_meth  1          7.3
 2 s1597662 lin_meth  1          6.5
 3 s1597662 math_stat 1          8.3
 4 s2055581 res_meth  1          8.5
 5 s2055581 lin_meth  1          7.8
 6 s2055581 math_stat 1          5.6
 7 s2055581 math_stat 2          6.6
 8 s1793478 res_meth  1          7.8
 9 s1793478 lin_meth  1          7.4
10 s1793478 math_stat 1          5.8
# ... with 28 more rows

test_results %>%
    pivot_longer(
        -student,
        names_to=c("course", "attempt"),
        names_pattern="(.*)_(\\d+)",
        values_to="result",
        values_drop_na=TRUE
    ) %>% 
    group_by(student, course) %>%
    summarize(grade = max(result))

# A tibble: 30 x 3
# Groups:   student [10]
   student  course    grade
   <glue>   <chr>     <dbl>
 1 s1597662 lin_meth    6.5
 2 s1597662 math_stat   8.3
 3 s1597662 res_meth    7.3
 4 s1609104 lin_meth    6.1
 5 s1609104 math_stat   6.4
 6 s1609104 res_meth    7.3
 7 s1707982 lin_meth    6.6
 8 s1707982 math_stat   6.7
 9 s1707982 res_meth    9.8
10 s1793478 lin_meth    7.4
# ... with 20 more rows

Housing Data

Housing Data

train <- readr::read_csv("data/train.csv")
train

# A tibble: 1,460 x 81
      Id MSSubClass MSZoning LotFrontage LotArea Street Alley LotShape
   <dbl>      <dbl> <chr>          <dbl>   <dbl> <chr>  <chr> <chr>   
 1     1         60 RL                65    8450 Pave   <NA>  Reg     
 2     2         20 RL                80    9600 Pave   <NA>  Reg     
 3     3         60 RL                68   11250 Pave   <NA>  IR1     
 4     4         70 RL                60    9550 Pave   <NA>  IR1     
 5     5         60 RL                84   14260 Pave   <NA>  IR1     
 6     6         50 RL                85   14115 Pave   <NA>  IR1     
 7     7         20 RL                75   10084 Pave   <NA>  Reg     
 8     8         60 RL                NA   10382 Pave   <NA>  IR1     
 9     9         50 RM                51    6120 Pave   <NA>  Reg     
10    10        190 RL                50    7420 Pave   <NA>  Reg     
# ... with 1,450 more rows, and 73 more variables: LandContour <chr>,
#   Utilities <chr>, LotConfig <chr>, LandSlope <chr>, Neighborhood <chr>,
#   Condition1 <chr>, Condition2 <chr>, BldgType <chr>, HouseStyle <chr>,
#   OverallQual <dbl>, OverallCond <dbl>, YearBuilt <dbl>, YearRemodAdd <dbl>,
#   RoofStyle <chr>, RoofMatl <chr>, Exterior1st <chr>, Exterior2nd <chr>,
#   MasVnrType <chr>, MasVnrArea <dbl>, ExterQual <chr>, ExterCond <chr>,
#   Foundation <chr>, BsmtQual <chr>, BsmtCond <chr>, BsmtExposure <chr>, ...

Housing Data

test <- readr::read_csv("data/test.csv")
test

# A tibble: 1,459 x 80
      Id MSSubClass MSZoning LotFrontage LotArea Street Alley LotShape
   <dbl>      <dbl> <chr>          <dbl>   <dbl> <chr>  <chr> <chr>   
 1  1461         20 RH                80   11622 Pave   <NA>  Reg     
 2  1462         20 RL                81   14267 Pave   <NA>  IR1     
 3  1463         60 RL                74   13830 Pave   <NA>  IR1     
 4  1464         60 RL                78    9978 Pave   <NA>  IR1     
 5  1465        120 RL                43    5005 Pave   <NA>  IR1     
 6  1466         60 RL                75   10000 Pave   <NA>  IR1     
 7  1467         20 RL                NA    7980 Pave   <NA>  IR1     
 8  1468         60 RL                63    8402 Pave   <NA>  IR1     
 9  1469         20 RL                85   10176 Pave   <NA>  Reg     
10  1470         20 RL                70    8400 Pave   <NA>  Reg     
# ... with 1,449 more rows, and 72 more variables: LandContour <chr>,
#   Utilities <chr>, LotConfig <chr>, LandSlope <chr>, Neighborhood <chr>,
#   Condition1 <chr>, Condition2 <chr>, BldgType <chr>, HouseStyle <chr>,
#   OverallQual <dbl>, OverallCond <dbl>, YearBuilt <dbl>, YearRemodAdd <dbl>,
#   RoofStyle <chr>, RoofMatl <chr>, Exterior1st <chr>, Exterior2nd <chr>,
#   MasVnrType <chr>, MasVnrArea <dbl>, ExterQual <chr>, ExterCond <chr>,
#   Foundation <chr>, BsmtQual <chr>, BsmtCond <chr>, BsmtExposure <chr>, ...
…
.
Gar2 Othr Shed TenC 
   2    2   49    1 

Shed is probably worth picking up

train %<>% 
    mutate(
        Shed = !is.na(MiscFeature) & MiscFeature == "Shed",
        ShedArea = ifelse(Shed, MiscVal, NA)) %>%
    select(-MiscFeature, -MiscVal)

train %>% select(contains("Shed"))

# A tibble: 1,460 x 2
   Shed  ShedArea
   <lgl>    <dbl>
 1 FALSE       NA
 2 FALSE       NA
 3 FALSE       NA
 4 FALSE       NA
 5 FALSE       NA
 6 TRUE       700
 7 FALSE       NA
 8 TRUE       350
 9 FALSE       NA
10 FALSE       NA
# ... with 1,450 more rows
…
train %>% select(starts_with("Fence"))

# A tibble: 1,460 x 3
   Fence FenceQuality FenceType
   <lgl> <chr>        <chr>    
 1 FALSE <NA>         <NA>     
 2 FALSE <NA>         <NA>     
 3 FALSE <NA>         <NA>     
 4 FALSE <NA>         <NA>     
 5 FALSE <NA>         <NA>     
 6 TRUE  Minimum      Privacy  
 7 FALSE <NA>         <NA>     
 8 FALSE <NA>         <NA>     
 9 FALSE <NA>         <NA>     
10 FALSE <NA>         <NA>     
# ... with 1,450 more rows
…
